======================================================================================================
-- Update: 09/03/2019.
-- By: trung n.
-- #011 - Task 6: Inventory Rental Order Edit

======================================================================================================

U   application/config/routes.php
U   application/views/inventoryrental/add.php
U   application/views/inventoryrental/edit.php
U   application/controllers/cms/InventoryRentalController.php
A   application/models/InventoryRentalDetail.php

